Chapter 6 Weather & Crop Regressions | # Chapter 6: Weather & Crop Regressions
…
-Visually, there appears to be a negative correlation between average maximum temperature and yield, but the model does not provide strong evidence for such a relationship. Adding year to the model provides significant evidence for a relationship in that regard, but we are note exactly looking for that relationship here. ##

Cross-Section: Analyze the relationship between temperature and yield across all counties in 2018. Is there a relationship? Interpret the results.

#Q3
rename(tmaxdf, "county_ansi" = "countyfp")

## # A tibble: 1,376,892 x 4
##    county_ansi   doy  year   tmax
##    <fct>       <dbl> <dbl>  <dbl>
##  1 93              1  1981 4.31  
##  2 147             1  1981 1.88  
##  3 13              1  1981 1.03  
##  4 99              1  1981 3.99  
##  5 195             1  1981 0.0337
##  6 67              1  1981 0.530 
##  7 107             1  1981 4.24  
##  8 15              1  1981 3.98  
##  9 57              1  1981 2.52  
## 10 127             1  1981 1.64  
## # ... with 1,376,882 more rows
…
